Custom Simulations · Crispulator.jl
…
]]> 

And that is what we see. The change is really small (this is pretty usual), but the later analysis will be able to pull out the increasing genes.
Sequencing and Analysis
Now we'll use Crispulator.sequencing to simulate sequencing by transforming the guide frequencies into a Categorical distribution and drawing a random sample of reads from this distribution. Finally, we'll use the Crispulator.differences_between_bins function to compute the differences between bins on a per-guide level (guide_data) and per-gene level (gene_data).

raw_data = sequencing(Dict(:bin1=>s.seq_depth, :bin2=>s.seq_depth), guides, freqs)
guide_data, gene_data = differences_between_bins(raw_data);

(1250×17 DataFrame
  Row │ gene   knockdown  theo_phenotype  behavior   class     initial_freq  c ⋯
      │ Int64  Float64    Float64         Symbol     Symbol    Float64       F ⋯
──────┼─────────────────────────────────────────────────────────────────────────
    1 │     1   0.961577             0.0  sigmoidal  inactive   0.000143811    ⋯
    2 │     1   0.716594             0.0  sigmoidal  inactive   9.86133e-5
    3 │     1   0.136509             0.0  sigmoidal  inactive   0.000299949
    4 │     1   0.862187             0.0  sigmoidal  inactive   0.000152029
    5 │     1   0.987847             0.0  sigmoidal  inactive   0.00117514     ⋯
    6 │     2   0.936859             0.0  linear     inactive   0.000731382
    7 │     2   0.897217             0.0  linear     inactive   0.000468413
    8 │     2   0.880072             0.0  linear     inactive   0.00165588
  ⋮   │   ⋮        ⋮            ⋮             ⋮         ⋮           ⋮          ⋱
 1244 │   249   0.786353             0.0  linear     inactive   0.000402671    ⋯
 1245 │   249   0.793288             0.0  linear     inactive   0.000189009
 1246 │   250   0.804124             0.0  linear     inactive   0.000230098
 1247 │   250   0.970451             0.0  linear     inactive   0.000386235
 1248 │   250   0.934224             0.0  linear     inactive   0.00102311     ⋯
 1249 │   250   0.948048             0.0  linear     inactive   0.00161068
 1250 │   250   0.889028             0.0  linear     inactive   0.00122856
                                                11 columns and 1235 rows omitted, 225×7 DataFrame
…
