Custom Simulations · Crispulator.jl
…
]]> 

And that is what we see. The change is really small (this is pretty usual), but the later analysis will be able to pull out the increasing genes.
Sequencing and Analysis
Now we'll use Crispulator.sequencing to simulate sequencing by transforming the guide frequencies into a Categorical distribution and drawing a random sample of reads from this distribution. Finally, we'll use the Crispulator.differences_between_bins function to compute the differences between bins on a per-guide level (guide_data) and per-gene level (gene_data).

raw_data = sequencing(Dict(:bin1=>s.seq_depth, :bin2=>s.seq_depth), guides, freqs)
guide_data, gene_data = differences_between_bins(raw_data);

(1250×17 DataFrame
  Row │ gene   knockdown  theo_phenotype  behavior   class       initial_freq  ⋯
      │ Int64  Float64    Float64         Symbol     Symbol      Float64       ⋯
──────┼─────────────────────────────────────────────────────────────────────────
    1 │     1   0.873575      0.0245445   linear     increasing   0.000628659  ⋯
    2 │     1   0.124267      0.00349147  linear     increasing   0.000912173
    3 │     1   0.158259      0.00444653  linear     increasing   0.000299949
    4 │     1   0.928576      0.0260898   linear     increasing   0.0019435
    5 │     1   0.880775      0.0247468   linear     increasing   0.000608115  ⋯
    6 │     2   0.99331       0.0         linear     inactive     0.00113405
    7 │     2   0.805562      0.0         linear     inactive     0.000131484
    8 │     2   0.909059      0.0         linear     inactive     0.00164355
  ⋮   │   ⋮        ⋮            ⋮             ⋮          ⋮            ⋮        ⋱
 1244 │   249   0.774686      0.0         linear     inactive     0.00119979   ⋯
 1245 │   249   0.984862      0.0         linear     inactive     0.00025886
 1246 │   250   0.942961      0.0         linear     inactive     0.000365691
 1247 │   250   0.898503      0.0         linear     inactive     0.00059168
 1248 │   250   0.66415       0.0         linear     inactive     0.000320493  ⋯
 1249 │   250   0.162626      0.0         linear     inactive     0.00033282
 1250 │   250   0.895872      0.0         linear     inactive     0.00109296
                                                11 columns and 1235 rows omitted, 217×7 DataFrame
…
