Custom Simulations · Crispulator.jl
…
]]> 

And that is what we see. The change is really small (this is pretty usual), but the later analysis will be able to pull out the increasing genes.
Sequencing and Analysis
Now we'll use Crispulator.sequencing to simulate sequencing by transforming the guide frequencies into a Categorical distribution and drawing a random sample of reads from this distribution. Finally, we'll use the Crispulator.differences_between_bins function to compute the differences between bins on a per-guide level (guide_data) and per-gene level (gene_data).

raw_data = sequencing(Dict(:bin1=>s.seq_depth, :bin2=>s.seq_depth), guides, freqs)
guide_data, gene_data = differences_between_bins(raw_data);

(1250×17 DataFrame
  Row │ gene   knockdown  theo_phenotype  behavior   class       initial_freq  ⋯
      │ Int64  Float64    Float64         Symbol     Symbol      Float64       ⋯
──────┼─────────────────────────────────────────────────────────────────────────
    1 │     1  0.892946         0.0       linear     inactive     0.00147098   ⋯
    2 │     1  0.978794         0.0       linear     inactive     0.00176271
    3 │     1  0.874514         0.0       linear     inactive     0.000349255
    4 │     1  0.887646         0.0       linear     inactive     0.00273652
    5 │     1  0.766507         0.0       linear     inactive     0.00105598   ⋯
    6 │     2  0.951543         0.0       sigmoidal  inactive     0.000599897
    7 │     2  0.959032         0.0       sigmoidal  inactive     0.000677966
    8 │     2  0.761613         0.0       sigmoidal  inactive     0.000567026
  ⋮   │   ⋮        ⋮            ⋮             ⋮          ⋮            ⋮        ⋱
 1244 │   249  0.0392823        0.0       sigmoidal  inactive     0.000419106  ⋯
 1245 │   249  0.0159902        0.0       sigmoidal  inactive     0.00110118
 1246 │   250  0.83419          0.251498  linear     increasing   0.000558808
 1247 │   250  0.925042         0.278888  linear     increasing   0.00205855
 1248 │   250  0.943054         0.284319  linear     increasing   0.00159014   ⋯
 1249 │   250  0.773026         0.233057  linear     increasing   0.00120801
 1250 │   250  0.959892         0.289395  linear     increasing   0.00168053
                                                11 columns and 1235 rows omitted, 232×7 DataFrame
…
