Custom Simulations · Crispulator.jl
…
]]> 

And that is what we see. The change is really small (this is pretty usual), but the later analysis will be able to pull out the increasing genes.
Sequencing and Analysis
Now we'll use Crispulator.sequencing to simulate sequencing by transforming the guide frequencies into a Categorical distribution and drawing a random sample of reads from this distribution. Finally, we'll use the Crispulator.differences_between_bins function to compute the differences between bins on a per-guide level (guide_data) and per-gene level (gene_data).

raw_data = sequencing(Dict(:bin1=>s.seq_depth, :bin2=>s.seq_depth), guides, freqs)
guide_data, gene_data = differences_between_bins(raw_data);

(1250×17 DataFrame
  Row │ gene   knockdown  theo_phenotype  behavior   class       initial_freq  ⋯
      │ Int64  Float64    Float64         Symbol     Symbol      Float64       ⋯
──────┼─────────────────────────────────────────────────────────────────────────
    1 │     1  0.799016        0.0626826  linear     increasing   0.000661531  ⋯
    2 │     1  0.916905        0.071931   linear     increasing   0.000390344
    3 │     1  0.948852        0.0744372  linear     increasing   0.000575244
    4 │     1  0.975378        0.0765182  linear     increasing   0.000756035
    5 │     1  0.908626        0.0712815  linear     increasing   0.00025886   ⋯
    6 │     2  0.936576        0.0        sigmoidal  inactive     0.000575244
    7 │     2  0.935258        0.0        sigmoidal  inactive     0.00025886
    8 │     2  0.780918        0.0        sigmoidal  inactive     0.00123267
  ⋮   │   ⋮        ⋮            ⋮             ⋮          ⋮            ⋮        ⋱
 1244 │   249  0.161441        0.0        linear     inactive     0.000834104  ⋯
 1245 │   249  0.839428        0.0        linear     inactive     0.00152029
 1246 │   250  0.960947        0.0        sigmoidal  negcontrol   0.000899846
 1247 │   250  0.995554        0.0        sigmoidal  negcontrol   0.000423215
 1248 │   250  0.922368        0.0        sigmoidal  negcontrol   0.0005547    ⋯
 1249 │   250  0.850695        0.0        sigmoidal  negcontrol   0.000193118
 1250 │   250  0.0345713       0.0        sigmoidal  negcontrol   0.000488957
                                                11 columns and 1235 rows omitted, 221×7 DataFrame
…
