Custom Simulations · Crispulator.jl
…
]]> 

And that is what we see. The change is really small (this is pretty usual), but the later analysis will be able to pull out the increasing genes.
Sequencing and Analysis
Now we'll use Crispulator.sequencing to simulate sequencing by transforming the guide frequencies into a Categorical distribution and drawing a random sample of reads from this distribution. Finally, we'll use the Crispulator.differences_between_bins function to compute the differences between bins on a per-guide level (guide_data) and per-gene level (gene_data).

raw_data = sequencing(Dict(:bin1=>s.seq_depth, :bin2=>s.seq_depth), guides, freqs)
guide_data, gene_data = differences_between_bins(raw_data);

(1250×17 DataFrame
  Row │ gene   knockdown  theo_phenotype  behavior   class       initial_freq  ⋯
      │ Int64  Float64    Float64         Symbol     Symbol      Float64       ⋯
──────┼─────────────────────────────────────────────────────────────────────────
    1 │     1  0.878121        0.0260118  linear     increasing   0.000801233  ⋯
    2 │     1  0.965258        0.028593   linear     increasing   0.000431433
    3 │     1  0.671585        0.0198938  linear     increasing   0.000275295
    4 │     1  0.854484        0.0253116  linear     increasing   0.000567026
    5 │     1  0.985221        0.0291843  linear     increasing   0.000139702  ⋯
    6 │     2  0.838054        0.0        linear     inactive     0.000813559
    7 │     2  0.824508        0.0        linear     inactive     0.00292142
    8 │     2  0.757509        0.0        linear     inactive     0.000624551
  ⋮   │   ⋮        ⋮            ⋮             ⋮          ⋮            ⋮        ⋱
 1244 │   249  0.972425        0.0        sigmoidal  negcontrol   0.000287622  ⋯
 1245 │   249  0.94075         0.0        sigmoidal  negcontrol   0.000419106
 1246 │   250  0.745892        0.224311   linear     increasing   0.000320493
 1247 │   250  0.98393         0.295896   linear     increasing   0.000439651
 1248 │   250  0.834309        0.250901   linear     increasing   0.000242424  ⋯
 1249 │   250  0.977158        0.29386    linear     increasing   0.000677966
 1250 │   250  0.666679        0.20049    linear     increasing   0.000579353
                                                11 columns and 1235 rows omitted, 214×7 DataFrame
…
