Custom Simulations · Crispulator.jl
…
]]> 

And that is what we see. The change is really small (this is pretty usual), but the later analysis will be able to pull out the increasing genes.
Sequencing and Analysis
Now we'll use Crispulator.sequencing to simulate sequencing by transforming the guide frequencies into a Categorical distribution and drawing a random sample of reads from this distribution. Finally, we'll use the Crispulator.differences_between_bins function to compute the differences between bins on a per-guide level (guide_data) and per-gene level (gene_data).

raw_data = sequencing(Dict(:bin1=>s.seq_depth, :bin2=>s.seq_depth), guides, freqs)
guide_data, gene_data = differences_between_bins(raw_data);

(1250×17 DataFrame
  Row │ gene   knockdown  theo_phenotype  behavior   class       initial_freq  ⋯
      │ Int64  Float64    Float64         Symbol     Symbol      Float64       ⋯
──────┼─────────────────────────────────────────────────────────────────────────
    1 │     1  0.894903        0.0        linear     inactive     0.000497175  ⋯
    2 │     1  0.870252        0.0        linear     inactive     0.00126554
    3 │     1  0.859313        0.0        linear     inactive     0.000751926
    4 │     1  0.775532        0.0        linear     inactive     0.000829995
    5 │     1  0.70285         0.0        linear     inactive     0.0013395    ⋯
    6 │     2  0.841076        0.0        linear     inactive     0.00177093
    7 │     2  0.849767        0.0        linear     inactive     0.0013888
    8 │     2  0.0201719       0.0        linear     inactive     0.00126143
  ⋮   │   ⋮        ⋮            ⋮             ⋮          ⋮            ⋮        ⋱
 1244 │   249  0.0408941       0.0        linear     inactive     0.0017093    ⋯
 1245 │   249  0.780636        0.0        linear     inactive     0.00389111
 1246 │   250  0.875963        0.0380396  sigmoidal  increasing   0.000336929
 1247 │   250  0.853043        0.03793    sigmoidal  increasing   0.000398562
 1248 │   250  0.837944        0.0377634  sigmoidal  increasing   0.000768362  ⋯
 1249 │   250  0.0272993       0.0        sigmoidal  increasing   0.00117103
 1250 │   250  0.98718         0.0380396  sigmoidal  increasing   0.000764253
                                                11 columns and 1235 rows omitted, 224×7 DataFrame
…
